%YAML 1.1
%TAG !u! tag:unity3d.com,2011:
--- !u!1045 &1
EditorBuildSettings:
  m_ObjectHideFlags: 0
  serializedVersion: 2
  m_Scenes:
  - enabled: 1
    path: Assets/ProjectTeamFramework/Scenes/Samples.unity
    guid: e943aede66554084292b43c6d94bc8c1
  - enabled: 1
    path: Assets/ProjectTeamFramework/Scenes/BasicMenu.unity
    guid: e60fd33ae457b5248805d7f3f56b434c
  m_configObjects: {}
